304 305 5 5 412 0 0 0 0 320 0 0 0 0 2 2 60.8 0.008876 1 25 80
305 0 1 1 320 0 0 0 0 178.71 0.045577 -0.0003172 1.1853e-006 -1.7247e-009 2 2 95.2 0.008914 1 25 82
283 0 146 146 86 0 0 0 0 31.814 0.0095135 -9.8712e-006 7.3872e-009 -2.0741e-012 2 2 60 0.008731 1 5 132
281 0 199 199 396 0 0 0 0 147.35 0.024646 -6.6651e-005 9.4437e-008 -4.8237e-011 2 2 176.1 0.009025 1 40 81
278 0 7337 4386 279.97 -0.010212 3.9254e-006 -4.7669e-010 2.0332e-014 223.9 0.0045704 -4.203e-007 0 0 2 2 210 0.008829 1 44 400
251 252 54400 11150 391.4 0.0027722 -4.3573e-008 2.903e-013 0 332.8 0.001343 8.8196e-008 -1.6277e-011 0 2 2 1275 0.009124 1 97 1191
252 257 2300 2300 333 0 0 0 0 284.11 0.0044256 -7.8076e-007 6.6166e-011 0 2 2 450 0.008927 1 102 1155
257 261 2740 2210 248.66 0.0068543 -5.312e-007 0 0 233.63 0.00095767 -1.978e-008 1.4071e-013 0 2 2 452.1 0.009074 1 228 2058
261 275 4940 4940 212 0 0 0 0 171.37 0.0024155 -1.3583e-007 4.4759e-012 -5.7384e-017 2 2 902.5 0.009148 1 285 3400
275 0 50275 11293 31.784 0.0023924 -6.7487e-008 1.0471e-012 -6.3456e-018 2.6739 0.00074146 -2.224e-008 4.0782e-013 -2.8658e-018 2 2 8370 0.009182 4 1269 14340
272 0 530 130 58.612 0.017958 4.961e-006 -1.5139e-008 9.252e-012 44.659 0.014619 -8.41e-006 0 0 2 2 30 0.008633 4 35 186
217 0 11 11 555 0 0 0 0 359 0.10583 -0.00225 1.6667e-005 0 2 2 55 0.009035 1 3 32
196 0 21 21 479.2 0 0 0 0 302.15 0.074901 -0.00046576 1.4776e-006 -1.7579e-009 2 2 120 0.008437 1 19 84
195 0 17.15 16.17 349.74 0.3067 0 0 0 248.44 -0.0089167 0.00018083 -8.3333e-007 1.2667e-009 2 2 118 0.00899 1 55 127
190 0 5085 3173 282.03 0.0066807 -6.2855e-007 3.6899e-011 -7.7991e-016 258.34 0.002943 0 0 0 2 2 237.4 0.009035 3 169 592
189 0 3072 2192 65.903 0.030038 -7.5572e-006 1.1686e-009 -7.5717e-014 4.1448 0.0055427 -5.1007e-006 2.871e-009 -6.0789e-013 2 2 160 0.008829 3 1 180
175 178 121 121 251.5 0 0 0 0 129.04 0.0020797 -5.2707e-008 6.6646e-013 2.2312e-017 1 1 2462.4 0.00916 3 501 2400
162 169 557 95.25 801.79 0.11423 -0.0001977 1.4418e-007 -2.4888e-017 636.2 0.03073 -0.00015531 5.0847e-007 -6.0987e-010 2 2 105 0.008829 1 9 72
156 169 19528 4250 530.33 0.006076 -4.8362e-007 2.2035e-011 -3.8466e-016 514.66 0.0016069 -2.5528e-007 2.8855e-011 -1.1798e-015 2 2 396 0.008564 1 58 924
169 172 34116 5447 374.18 0.0013967 -5.3516e-008 1.156e-012 -9.546e-018 359.65 0.001964 -2.9687e-007 2.5083e-011 -7.7023e-016 2 2 1050 0.009023 3 506 4278
172 173 10782 7234 275.81 0.0067649 -8.8684e-007 7.0679e-011 -2.2398e-015 251.5 0 0 0 0 2 2 1500 0.008931 3 501 3306
173 174 1226 1226 251.5 0 0 0 0 230.3 0 0 0 0 1 1 400 0.008909 3 501 2200
174 178 26 26 230.3 0 0 0 0 134.12 0.0033188 -3.0926e-007 2.1528e-011 -5.9295e-016 1 1 1417.4 0.008792 3 501 1968
178 0 3800 3800 138 0 0 0 0 10.039 0.0066655 -2.4548e-006 4.5595e-010 -3.1449e-014 2 2 3162 0.009119 3 501 2976
148 154 5964 2268 410.91 0.03965 -7.5934e-006 8.6316e-010 -3.9558e-014 327.19 0.02614 -2.9349e-005 1.5951e-008 -3.2518e-012 2 2 360 0.008927 1 14 291
154 0 1634 1634 110 0 0 0 0 26.899 0.0053229 -2.7618e-006 7.556e-010 -7.2908e-014 2 2 450 0.009123 3 32 642
192 193 12 12 495 0 0 0 0 375.5 0 0 0 0 2 2 140 0.008829 1 12 136
193 143 1 1 369.5 0 0 0 0 255.1 0 0 0 0 2 2 78 0.008633 1 14 83
139 143 54.44 54.44 284.15 2.5895 -0.083298 0.0014461 -9.4139e-006 275.7 0.010298 -1.2649e-005 1.3422e-008 -5.4763e-012 2 2 140.1 0.009074 1 26 318
134 135 78 78 356 0 0 0 0 254.29 0.00073627 1.3766e-005 4.9477e-007 -1.4933e-009 1 1 102 0.00826 1 18 132
135 143 89 56 230.8 0.27174 0 0 0 204 0 0 0 0 2 2 112 0.009055 1 18 248
143 144 185.52 156.55 79.904 0.10317 -0.00048151 1.5363e-006 -1.9381e-009 58.937 0.0035098 -1.3261e-006 3.1413e-010 -2.8346e-014 2 2 330 0.009123 1 144 1329
144 0 18.84 18.84 60.75 0 0 0 0 36.899 0.0028405 -1.9197e-007 4.9168e-012 0 1 1 198 0.009066 1 191 1040
132 133 445.35 445.35 415 0 0 0 0 90.3 0 0 0 0 2 2 132 0.00834 1 4 51
131 133 38 38 399 0 0 0 0 86.9 0 0 0 0 2 2 380 0.008535 1 47 144
133 0 17 17 86.5 0 0 0 0 45.006 0.038889 -0.00017935 4.4111e-007 -3.9807e-010 2 2 100 0.00835 1 55 320
126 127 7 6 645.01 3.8781 -0.37955 0.019038 -0.00036164 525.63 0.019229 -1.5697e-005 0 0 2 2 50 0.008535 1 7 44
127 130 1 1 436.5 0 0 0 0 356 0 0 0 0 2 2 60 0.008437 1 19 90
121 122 4732 2096 662.43 0.022411 -4.4028e-006 5.5049e-010 -2.8359e-014 623.77 0.043468 -0.00032351 1.3542e-006 -2.1773e-009 1 1 85 0.008731 1 20 126
122 123 439 131 592.78 0.10445 -8.622e-005 0 0 577.2 0 0 0 0 2 2 56 0.008829 1 23 144
120 123 1236 443 579.64 0.074086 -5.9817e-005 3.1409e-008 -6.9032e-012 555.27 0.054943 -0.00013248 3.3483e-007 0 2 2 27.6 0.008534 1 7 66
123 130 888 283 421.23 0.10443 -9.5673e-005 3.996e-008 0 392.7 0.010313 -5.9946e-006 1.3449e-009 0 2 2 222 0.00824 1 51 378
130 0 8 8 135.6 0 0 0 0 98.62 0.02287 -6.0999e-005 9.0003e-008 -4.98e-011 2 2 187.1 0.007763 1 104 704
119 0 1 1 728.75 0 0 0 0 11.5 0 0 0 0 1 1 888 0.007946 1 8 151
115 0 179 23 812.61 0.49174 -0.0040115 1.9523e-005 -3.7995e-008 90.7 0 0 0 0 1 1 260 0.008829 2 7 40
111 112 3646 289 293.94 0.023974 -9.6548e-006 2.3009e-009 -2.1199e-013 277.8 0.0055459 -1.6359e-006 2.8093e-010 -1.6782e-014 1 1 158 0.009221 2 9 466
112 113 29 29 279.89 0 0 0 0 181.37 0.0055721 -1.6055e-006 2.8396e-010 -1.8106e-014 1 1 180 0.008731 2 9 234
113 114 620 620 184 0 0 0 0 91.92 0.0054479 -1.4621e-006 1.9309e-010 -9.652e-015 1 1 500 0.009221 2 12 620
114 0 330 330 94.5 0 0 0 0 53.332 0.0048108 -2.4017e-006 8.9889e-010 -1.2641e-013 2 2 125 0.008633 2 14 376
97 98 92 87 209.6 0.56951 -0.0041011 2.0072e-005 -4.0063e-008 136.53 0.021283 -3.4127e-005 2.8833e-008 -9.1355e-012 2 2 129.9 0.009025 2 4 159
98 0 11.28 10.1 135.77 1.4997 -0.048632 0.0010868 -1.0375e-005 105.12 0.0036728 -3.3018e-007 2.0437e-011 -4.9877e-016 2 2 130 0.009025 2 7 372
95 0 137 111 503.94 0.54133 -0.0019687 3.0855e-006 0 426.02 0.0082689 -2.4096e-005 3.4937e-008 -1.8062e-011 2 2 120 0.009025 2 4 114
93 0 1589 185 580.39 0.02215 -1.4134e-005 6.3447e-009 -1.1547e-012 335.1 0.0081667 -5.6667e-006 0 0 1 1 226 0.008926 2 2 104
90 91 1477 1320 242.92 1.0742 -0.0011037 5.2082e-007 -9.242e-011 470.1 0.010088 -5.5874e-006 1.7344e-009 -2.0111e-013 2 2 879.9 0.008927 2 23 558
86 91 4904.4 2711.8 539.86 0.044561 -8.1486e-006 9.324e-010 -4.3898e-014 479.95 0.0016176 -4.5221e-008 0 0 2 2 698.4 0.009025 2 18 516
91 92 3340 2283 401.22 0.050097 -1.573e-005 3.2966e-009 -2.8828e-013 371.94 0.0019324 -8.53e-008 2.3757e-012 -2.6162e-017 2 2 1140 0.008927 2 54 1311
92 0 5100 5100 370 0 0 0 0 261.36 0.0030119 -5.6361e-007 6.7914e-011 -3.0285e-015 2 2 1450 0.008927 2 79 1590
74 76 5779 1974 650.88 0.034987 -6.5002e-006 7.778e-010 -3.9529e-014 601.89 0.0011058 4.2089e-007 -8.3115e-011 4.7611e-015 1 1 1676 0.009025 2 80 1376
76 77 2950 2562 552.54 0.024692 -2.1034e-006 0 0 490.04 6.0841e-005 2.9248e-007 -2.3201e-011 4.5645e-016 2 2 1260 0.009026 2 101 1268
71 72 431 169 766.13 0.16887 -0.00031281 3.9902e-007 -2.2478e-010 705.5 0.00358 8.0946e-006 -1.9677e-008 1.217e-011 2 2 120 0.008829 2 14 156
72 73 35 35 668.91 2.7814 -0.11202 0.0026005 -2.2968e-005 604.92 0.02781 -4.6268e-005 3.359e-008 -8.9175e-012 2 2 120 0.008829 2 14 148
73 77 110 85 574.8 0.32 0 0 0 602 0 0 0 0 1 1 8658 0 2 10 2496
77 78 6775 2662 447.73 0.018233 -2.8712e-006 3.0026e-010 -1.273e-014 394.42 0.002111 -7.9231e-008 2.3516e-012 -2.7139e-017 1 1 1420 0.008829 2 116 1576
78 82 1124 1124 397 0 0 0 0 321.84 0.002281 -1.4027e-007 3.8419e-012 -5.363e-017 1 1 1078 0.008829 2 119 1784
82 0 3573 3573 325 0 0 0 0 257.92 0.00062084 -1.7184e-008 2.2827e-013 1.2171e-020 2 2 1240 0.009026 2 148 2100
47 48 7008 3843 542.55 0.006367 -6.7515e-007 5.3943e-011 -1.8994e-015 531.39 0.0040481 -1.395e-006 2.7102e-010 0 1 1 97.8 0.008927 1 55 356
48 49 84 84 531.5 0 0 0 0 503.81 0.0064191 -5.3645e-006 2.6895e-009 -5.0573e-013 2 2 80 0.008829 1 56 362
49 249 8795 5754 437.47 0.0066313 -3.7518e-007 1.0624e-011 0 397.03 0.0043964 -1.2534e-006 1.795e-010 0 1 1 414 0.008731 1 73 648
249 50 20.82 20.82 398 0 0 0 0 385.64 0.0037213 -1.4524e-006 5.3304e-010 -7.3532e-014 2 2 44.1 0.008731 1 74 486
50 51 45 45 384.67 0 0 0 0 365.51 0.002048 -9.7938e-008 0 0 1 1 73.6 0.008338 1 96 564
51 52 151 151 366 0 0 0 0 350.96 0.0013797 -8.0641e-008 0 0 2 2 72 0.008829 1 96 546
52 61 212 212 351 0 0 0 0 333.38 0.0019941 -5.4955e-007 8.2466e-011 -4.5559e-015 2 2 82.5 0.008928 1 98 567
61 62 10540 4816 297.88 0.0071881 -6.6293e-007 3.945e-011 -9.8711e-016 283.46 0.0013083 -6.9021e-008 1.6758e-012 0 1 1 640 0.008338 1 192 1744
62 63 677 677 284 0 0 0 0 257.43 0.0012586 -1.1135e-007 6.1233e-012 -1.2715e-016 2 2 554 0.008829 1 200 2870
63 66 1918 1918 258 0 0 0 0 235.28 0.0015906 -9.2051e-008 2.0035e-012 0 1 1 372 0.008829 1 227 2828
37 38 3135 569 432.78 0.014965 -6.7074e-006 1.7598e-009 -1.6982e-013 427.54 -0.00080522 3.0806e-006 -1.3497e-009 1.9017e-013 1 1 140 0.008633 1 76 756
38 39 544 544 427.5 0 0 0 0 403.95 0.00048027 1.5554e-006 -8.1347e-010 1.2167e-013 1 1 144 0.008437 1 89 771
39 40 985 985 404 0 0 0 0 379.35 0.0022572 1.9628e-007 -3.2366e-010 5.8838e-014 1 1 131.4 0.008829 1 114 705
40 42 7408 5280 369.69 -0.000525 1.083e-006 -1.6016e-010 7.9277e-015 358 -0.00024097 5.5982e-007 -1.2308e-010 8.0306e-015 1 1 264 0.008829 1 135 1293
42 43 2720 2720 358 0 0 0 0 323.08 0.0043148 -2.1334e-006 5.679e-010 -5.378e-014 1 1 347.4 0.008829 1 139 1431
43 45 13372 9923 293.21 0.005496 -3.927e-007 1.7331e-011 -3.1018e-016 280.03 -0.00022008 7.1098e-007 -1.7131e-010 1.3001e-014 1 1 807.5 0.008829 1 151 2205
290 34 209 71 559.13 0.39964 -0.0027849 9.2574e-006 -1.154e-008 527.01 0.067035 -0.00040754 9.4125e-007 0 2 2 32.1 0.008731 1 22 72
29 30 3624.4 2936.6 789.33 0.039666 -1.4961e-005 3.0718e-009 -2.366e-013 769.39 0.014732 -1.0236e-005 3.7784e-009 -5.2588e-013 2 2 127 0.009123 1 22 208
30 31 1500 470 545.89 0.064709 -3.2372e-005 7.3934e-009 0 510.99 0.016241 -1.183e-005 3.0805e-009 0 2 2 375 0.008928 1 74 570
25 26 12792 2412 752.15 0.012283 -1.2569e-006 7.8525e-011 -1.9786e-015 693.3 0.012572 -1.2688e-005 8.5119e-009 -2.1423e-012 2 2 510 0.009223 1 53 597
26 27 1120 974 684.7 -0.004019 -7.936e-007 2.7851e-008 -1.4201e-011 624.52 0.0017833 -5.9841e-007 1.5994e-010 -1.9865e-014 2 2 408 0.009117 1 64 675
27 28 241.13 228.27 594.02 0.35164 -0.0021575 7.3589e-006 -9.5971e-009 564.64 0.0055516 -1.8485e-006 3.2518e-010 -2.0946e-014 2 2 240 0.008829 1 65 495
28 31 879 878 527.36 0.11044 -0.00018921 1.9327e-007 -7.4543e-011 517.2 0.0045396 -2.4737e-006 1.0624e-009 -1.8748e-013 2 2 210 0.008829 1 68 540
24 31 17725 4669 568.09 0.014506 -1.2028e-006 5.8303e-011 -1.1245e-015 519.32 0.00394 -3.6e-007 4.33e-011 -2.6e-015 1 1 1192 0.008731 1 73 1048
31 32 17027 4573 471.16 0.0072805 -5.6099e-007 2.5978e-011 -4.8454e-016 433 0.0015958 -8.1774e-008 3.1735e-012 0 1 1 2280 0.008829 1 261 3222
32 33 460 460 434.12 0 0 0 0 398.58 0.0021238 -2.6822e-007 2.2918e-011 0 1 1 658 0.00873 1 273 2570
33 34 12540 7000 358.33 0.0086173 -8.8427e-007 5.2932e-011 -1.242e-015 323.46 0.000405 4.2e-008 -2e-012 2.91e-017 1 1 1710 0.009025 1 450 2670
14 15 555 51 816.35 0.19769 -0.00057357 9.6904e-007 -6.3294e-010 747.21 0.10032 -0.00032746 -1.7168e-007 1.7281e-009 1 1 80.4 0.008437 1 8 94
15 16 14 14 665 0 0 0 0 572.3 0.064611 -0.0002324 4.3904e-007 -3.1242e-010 1 1 108.8 0.008339 1 12 148
16 17 25 25 573 0 0 0 0 545.36 0.016599 -3.6417e-005 5.1249e-008 -2.6363e-011 1 1 32 0.00824 1 12 178
1 2 792 120 892.97 0.062089 -0.00011041 1.247e-007 -5.5512e-011 886.1 0 0 0 0 1 1 46 0.008525 1 34 220
2 4 11 11 886 0 0 0 0 856.09 0.00765 -5.45e-006 2.65e-009 -4.6e-013 1 1 52 0.008819 1 34 236
4 6 304 304 808 0 0 0 0 768 0 0 0 0 2 2 180 0.008829 1 68 585
6 7 22950 5733 735.25 0.0034966 -1.9744e-007 6.917e-012 -9.7737e-017 671.63 0.0010174 -1.7997e-007 2.5133e-011 0 1 1 1312 0.008633 1 204 1692
7 8 4040 1540 641.77 0.0080882 -3.6982e-007 -7.1105e-011 9.1237e-015 619.27 0.001732 -4.8919e-008 0 0 1 1 478 0.00834 1 225 1328
8 9 1423 1423 622.5 0 0 0 0 556.72 0.0012218 -7.5122e-008 2.1663e-012 0 1 1 1104 0.00883 1 226 2028
9 10 450 450 558.5 0 0 0 0 510.03 0.00177 -7.4e-008 1.12e-011 -4.8e-016 1 1 424 0.008927 1 227 1076
10 11 480 480 512 0 0 0 0 494.2 0.00078165 -1.0431e-007 0 0 2 2 210 0.009026 1 229 1480
11 12 2244 2244 494.87 0 0 0 0 466.01 0.000872 -7.38e-008 6.34e-012 -1.9e-016 1 1 380 0.009025 1 235 1584
12 17 1524 1524 467.2 0 0 0 0 446.07 0.00018988 0 0 0 1 1 328 0.00873 1 245 1988
17 18 6150 890 417.89 0.011171 -2.2938e-006 2.9099e-010 -1.4826e-014 381.09 0.0014053 -2.0073e-008 1.058e-013 0 1 1 1488 0.008535 1 418 2944
18 34 11025 5856 352.03 0.0049959 -2.7416e-007 7.0983e-012 0 323.12 -0.0004577 3.9876e-007 -4.2211e-011 1.3987e-015 1 1 1396.2 0.008829 1 484 2958
34 45 21060 8232 293.92 0.0036006 -1.8461e-007 5.8776e-012 -7.5036e-017 279.95 4.2685e-005 4.2497e-008 -3.1012e-012 6.5561e-017 1 1 3444 0.008829 1 1387 9399
45 46 3354 3354 280 0 0 0 0 253.44 0.00057866 1.4402e-008 -1.4156e-012 2.609e-017 1 1 1551.2 0.008731 1 1635 8344
46 66 20000 14400 239.17 0.002497 -1.2596e-007 3.0481e-012 -2.571e-017 234.5 0.00070798 -2.5244e-008 4.646e-013 -3.2559e-018 2 2 1540 0.009133 1 1867 8904
66 0 29000 29000 220 0 0 0 0 100 0 0 0 0 1 1 14000 0.009025 5 2826 13260
